<?xml version="1.0" encoding="utf-8"?>
<!-- Generator: Adobe Illustrator 15.1.0, SVG Export Plug-In . SVG Version: 6.00 Build 0)  -->
<!DOCTYPE svg PUBLIC "-//W3C//DTD SVG 1.1//EN" "http://www.w3.org/Graphics/SVG/1.1/DTD/svg11.dtd">
<svg version="1.1"
	 id="Laag_2" xmlns:dc="http://purl.org/dc/elements/1.1/" xmlns:cc="http://creativecommons.org/ns#" xmlns:inkscape="http://www.inkscape.org/namespaces/inkscape" xmlns:rdf="http://www.w3.org/1999/02/22-rdf-syntax-ns#" inkscape:version="0.48.0 r9654" sodipodi:docname="overlay_square.svg" xmlns:svg="http://www.w3.org/2000/svg" xmlns:sodipodi="http://sodipodi.sourceforge.net/DTD/sodipodi-0.dtd"
	 xmlns="http://www.w3.org/2000/svg" xmlns:xlink="http://www.w3.org/1999/xlink" x="0px" y="0px" width="250px" height="500px"
	 viewBox="0 0 250 500" enable-background="new 0 0 250 500" xml:space="preserve">
<rect id="rect8409" x="-18.535" y="-6.781" fill="#FFFFFF" width="317.346" height="541.571"/>
<line id="line8401" fill="none" stroke="#000000" stroke-width="0.4978" x1="8.502" y1="24.75" x2="8.502" y2="479.104"/>
<rect x="1" y="207.144" fill="#FFFFFF" width="14.854" height="38.993"/>
<sodipodi:namedview  units="px" borderlayer="true" inkscape:current-layer="Laag_2" showgrid="false" gridtolerance="10" inkscape:window-maximized="0" inkscape:window-y="237" inkscape:pageshadow="2" inkscape:window-width="764" inkscape:cy="131.27448" inkscape:window-x="1866" inkscape:cx="160.3761" bordercolor="#666666" guidetolerance="10" borderopacity="1" inkscape:zoom="0.89393939" inkscape:window-height="603" pagecolor="#ffffff" objecttolerance="10" inkscape:pageopacity="0" id="namedview8403">
	</sodipodi:namedview>
<line id="line8395" fill="none" stroke="#000000" stroke-width="0.4897" x1="21.016" y1="349.439" x2="226.668" y2="349.439"/>
<line id="line8397" fill="none" stroke="#000000" stroke-width="0.4897" x1="21.016" y1="405.547" x2="226.668" y2="405.547"/>
<line id="line2987" fill="none" stroke="#000000" stroke-width="0.4897" x1="21.016" y1="293.334" x2="226.668" y2="293.334"/>
<line id="line2991" fill="none" stroke="#000000" stroke-width="0.4897" x1="21.016" y1="321.387" x2="226.668" y2="321.387"/>
<line id="line2993" fill="none" stroke="#000000" stroke-width="0.4897" x1="21.016" y1="377.494" x2="226.668" y2="377.494"/>
<g>
	<g>
		<path fill="#E49427" d="M6.984,236.711l0.005,1.88l-2.564-0.535c0.126-0.594,0.241-1.212,0.24-1.803
			c-0.221-1.004-1.007-1.041-1.548-1.219c0.117,0.36,0.157,0.759,0.157,1.159c0.002,0.811-0.15,1.622-0.148,2.137
			c0.008,3.181,1.646,4.387,3.358,4.382c0.927-0.002,1.248-0.493,1.246-1.38c-0.117,0.013-0.218,0.181-0.876,0.183
			c-2.06,0.005-2.628-0.676-2.669-1.667l8.606,1.832l-0.004-1.854l-4.844-1.03l-0.006-1.88L6.984,236.711z"/>
	</g>
	<g>
		<path fill="#E49427" d="M5.622,228.267c-0.001-0.566-0.453-1.028-1.02-1.027s-1.029,0.466-1.027,1.033
			c0.001,0.566,0.466,1.016,1.032,1.014C5.175,229.286,5.624,228.834,5.622,228.267z"/>
	</g>
	<g>
		<path fill="#E49427" d="M5.29,224.032c-0.863-0.179-1.057-0.615-1.057-0.898c-0.002-0.258,0.14-0.49,0.436-0.49
			c0.116,0,0.219,0.013,0.348,0.025l-0.002-0.605c-0.154-0.026-0.322-0.038-0.528-0.038c-0.837,0.002-1.389,0.737-1.386,1.523
			c0.002,0.85,0.353,1.957,2.195,2.338l5.153,1.077l0,0.003c0.644,0.191,1.134,0.654,1.136,1.157
			c0.001,0.36-0.114,0.527-0.475,0.528c-0.116,0-0.245-0.013-0.413-0.05l-4.379-0.917l0.004,1.854l4.135,0.865l0.001,0.001
			c0.644,0.191,1.133,0.538,1.135,1.039c0.001,0.361-0.115,0.528-0.476,0.53c-0.116,0-0.245-0.013-0.412-0.052l-4.38-0.915
			l0.004,1.853l4.135,0.865c0.645,0.191,1.135,0.525,1.136,1.028c0,0.283-0.231,0.386-0.528,0.387c-0.115,0-0.23-0.012-0.359-0.038
			l-4.38-0.916l0.005,1.854l4.136,0.864c0.308,0.064,0.593,0.102,0.837,0.101c1.082-0.003,1.543-0.609,1.542-1.381
			c-0.001-0.541-0.171-1.261-1.228-1.902c0.798-0.08,1.222-0.545,1.219-1.279c0-0.523-0.164-1.308-1.139-1.977
			c0.788-0.138,1.134-0.679,1.131-1.346c-0.002-0.466-0.131-1.191-0.847-1.838l0.662,0.141c0.376,1.223,0.753,2.213,1.938,2.209
			c0.837-0.002,1.388-0.737,1.387-1.522c-0.002-0.849-0.353-1.918-2.195-2.299l-6.958-1.462l-0.002-0.953l-0.515-0.088l0.002,0.94
			L5.29,224.032z M13.823,227.679c0.761,0.166,1.006,0.461,1.007,0.731c-0.001,0.284-0.244,0.516-0.423,0.515
			c-0.695,0.003-1.058-0.601-1.331-1.413L13.823,227.679z"/>
	</g>
	<g>
		<path fill="#E49427" d="M10.744,222.112c0.002,0.566,0.467,1.016,1.033,1.014c0.567-0.002,1.017-0.454,1.015-1.02
			c-0.001-0.567-0.454-1.029-1.02-1.027C11.205,221.081,10.743,221.545,10.744,222.112z"/>
	</g>
	<g>
		<path fill="#E49427" d="M11.001,211.913c-0.116,0-0.245-0.025-0.373-0.05L3.671,210.4l0.262,1.904l6.454,1.361
			c0.053,0.011,0.104,0.02,0.155,0.029c0.6,0.259,1.006,0.495,1.007,1.024c0,0.386-0.217,0.516-0.54,0.516
			c-0.721,0.001-2.281-0.612-3.323-0.609c-1.03,0.002-1.454,0.608-1.452,1.433c0.001,0.399,0.106,0.965,0.726,1.505l-0.671-0.141
			l0.005,1.854l6.442,1.35l-0.005-1.854l-4.136-0.866c-0.644-0.191-1.186-0.538-1.188-1.001c0-0.309,0.232-0.465,0.656-0.466
			c0.824-0.001,2.409,0.573,3.285,0.572c0.733-0.002,1.453-0.403,1.45-1.523c0-0.503-0.151-1.171-1.071-1.775
			c0.737-0.162,1.066-0.687,1.063-1.328c-0.001-0.695-0.442-1.351-1.355-1.414c0.039,0.079,0.078,0.181,0.078,0.413
			C11.516,211.783,11.297,211.913,11.001,211.913z"/>
	</g>
</g>
<g>
	<g>
		<path fill="#FAA92D" d="M6.61,237.202l0.016,1.879l-2.567-0.52c0.124-0.594,0.235-1.212,0.23-1.804
			c-0.227-1.002-1.014-1.036-1.556-1.21c0.119,0.358,0.161,0.758,0.164,1.157c0.006,0.811-0.142,1.624-0.137,2.138
			c0.025,3.181,1.669,4.378,3.383,4.365c0.927-0.007,1.245-0.5,1.238-1.388c-0.117,0.014-0.217,0.182-0.875,0.187
			c-2.061,0.017-2.633-0.661-2.679-1.653l8.617,1.786l-0.016-1.854L7.58,239.28l-0.015-1.881L6.61,237.202z"/>
	</g>
	<g>
		<path fill="#FAA92D" d="M5.204,228.765c-0.005-0.566-0.459-1.027-1.026-1.022c-0.566,0.004-1.026,0.472-1.021,1.038
			c0.004,0.567,0.471,1.014,1.038,1.009C4.761,229.786,5.208,229.332,5.204,228.765z"/>
	</g>
	<g>
		<path fill="#FAA92D" d="M4.849,224.532c-0.865-0.173-1.062-0.609-1.063-0.893c-0.002-0.257,0.137-0.49,0.433-0.493
			c0.116-0.001,0.22,0.012,0.347,0.022l-0.004-0.605c-0.155-0.023-0.322-0.035-0.528-0.034c-0.838,0.007-1.385,0.744-1.379,1.53
			c0.006,0.85,0.363,1.955,2.208,2.327l5.159,1.05l0,0.002c0.645,0.189,1.138,0.648,1.142,1.151
			c0.003,0.361-0.111,0.528-0.472,0.531c-0.115,0.001-0.244-0.011-0.412-0.048l-4.385-0.892l0.014,1.854l4.14,0.843l0,0
			c0.645,0.188,1.137,0.53,1.141,1.034c0.003,0.361-0.111,0.528-0.471,0.532c-0.117,0.001-0.246-0.011-0.414-0.049l-4.384-0.892
			l0.015,1.854l4.14,0.843c0.645,0.188,1.137,0.519,1.141,1.021c0.002,0.283-0.228,0.388-0.525,0.391
			c-0.116,0-0.231-0.011-0.361-0.036l-4.384-0.892l0.014,1.854l4.141,0.843c0.309,0.062,0.593,0.098,0.837,0.096
			c1.083-0.009,1.541-0.618,1.534-1.39c-0.003-0.541-0.177-1.261-1.238-1.896c0.797-0.083,1.22-0.55,1.213-1.284
			c-0.005-0.523-0.171-1.308-1.15-1.97c0.788-0.143,1.129-0.686,1.124-1.354c-0.003-0.465-0.137-1.188-0.858-1.833l0.664,0.135
			c0.383,1.22,0.764,2.208,1.948,2.199c0.837-0.007,1.385-0.746,1.379-1.531c-0.007-0.849-0.363-1.915-2.208-2.287l-6.964-1.425
			l-0.008-0.954l-0.516-0.085l0.007,0.94L4.849,224.532L4.849,224.532z M13.402,228.133c0.761,0.161,1.008,0.456,1.009,0.725
			c0.003,0.283-0.241,0.517-0.42,0.518c-0.695,0.006-1.061-0.597-1.338-1.405L13.402,228.133z"/>
	</g>
	<g>
		<path fill="#FAA92D" d="M10.292,222.583c0.004,0.566,0.472,1.013,1.039,1.009c0.566-0.005,1.014-0.459,1.008-1.026
			c-0.004-0.565-0.459-1.025-1.024-1.022C10.748,221.549,10.287,222.016,10.292,222.583z"/>
	</g>
	<g>
		<path fill="#FAA92D" d="M10.494,212.382c-0.115,0-0.245-0.024-0.374-0.049l-6.964-1.425l0.273,1.903l6.461,1.327
			c0.052,0.01,0.103,0.02,0.155,0.029c0.601,0.254,1.009,0.488,1.012,1.017c0.003,0.387-0.214,0.517-0.537,0.52
			c-0.721,0.005-2.283-0.6-3.327-0.592c-1.031,0.009-1.45,0.617-1.443,1.441c0.002,0.399,0.11,0.965,0.732,1.5l-0.671-0.136
			l0.015,1.853l6.45,1.313l-0.016-1.853l-4.14-0.842c-0.646-0.188-1.189-0.532-1.192-0.996c-0.003-0.31,0.228-0.465,0.653-0.469
			c0.823-0.007,2.412,0.561,3.288,0.553c0.733-0.006,1.452-0.411,1.443-1.53c-0.004-0.503-0.157-1.17-1.081-1.769
			c0.735-0.166,1.062-0.693,1.057-1.333c-0.006-0.697-0.45-1.35-1.363-1.408c0.04,0.078,0.078,0.18,0.08,0.413
			C11.008,212.249,10.79,212.379,10.494,212.382z"/>
	</g>
</g>
</svg>
