<svg xmlns="http://www.w3.org/2000/svg" width="116" height="68" viewBox="0 0 116 68" xmlns:xlink="http://www.w3.org/1999/xlink">
  <defs>
    <polygon id="a" points="0 6.905 61.069 0 61.069 102.19 0 109.095"/>
    <polygon id="b" points="0 6.905 68 13.81 68 116 0 109.095"/>
  </defs>
  <g fill="none" fill-rule="evenodd" transform="rotate(90 58 58)">
    <use fill="#F8F8F8" xlink:href="#a"/>
    <path stroke="#919191" stroke-width="2" d="M1,7.7980688 L1,107.975802 L60.0691709,101.297169 L60.0691709,1.11943611 L1,7.7980688 Z"/>
    <g>
      <use fill="#FFFFFF" xlink:href="#b"/>
      <path stroke="#919191" stroke-width="2" d="M1,8.01144455 L1,108.191637 L67,114.893317 L67,14.7131252 L1,8.01144455 Z"/>
    </g>
  </g>
</svg>
