<svg xmlns="http://www.w3.org/2000/svg" width="104" height="68" viewBox="0 0 104 68" xmlns:xlink="http://www.w3.org/1999/xlink">
  <defs>
    <polygon id="a" points="0 0 68 0 68 103.095 0 102.19"/>
  </defs>
  <g fill="none" fill-rule="evenodd" transform="rotate(90 52 52)">
    <use fill="#FFFFFF" xlink:href="#a"/>
    <path stroke="#919191" stroke-width="2" d="M1,1 L1,101.203693 L67,102.081844 L67,1 L1,1 Z"/>
  </g>
</svg>
