<svg xmlns="http://www.w3.org/2000/svg" width="89" height="90" viewBox="0 0 89 90" xmlns:xlink="http://www.w3.org/1999/xlink">
  <defs>
    <polygon id="a" points="0 0 89 1.012 89 89.988 0 88.976"/>
  </defs>
  <g fill="none" fill-rule="evenodd">
    <use fill="#FFFFFF" xlink:href="#a"/>
    <path stroke="#919191" stroke-width="2" d="M1,1.01143435 L1,87.9874956 L88,88.9766609 L88,2.00059968 L1,1.01143435 Z"/>
  </g>
</svg>
