<?xml version="1.0" encoding="utf-8"?>
<!-- Generator: Adobe Illustrator 21.0.1, SVG Export Plug-In . SVG Version: 6.00 Build 0)  -->
<svg version="1.1" id="Laag_1" xmlns="http://www.w3.org/2000/svg" xmlns:xlink="http://www.w3.org/1999/xlink" x="0px" y="0px"
	 viewBox="0 0 58 68" style="enable-background:new 0 0 58 68;" xml:space="preserve">
<style type="text/css">
	.st0{fill:#FFFFFF;stroke:#7E7F83;stroke-miterlimit:10;}
</style>
<rect x="9" y="2.9" class="st0" width="40" height="62.2"/>
</svg>
